{
    "tasks": {
        "definitions-of-done": [
            "- [ ] practical demonstration"
        ]
    },
    "abilities": {
        "definitions-of-done": [
            "- [ ] practical demonstration"            
        ]
    },
    "skills": {
        "definitions-of-done": [
            "- [ ] practical demonstration"            
        ]
    },
    "knowledge": {
        "definitions-of-done": [
            "- [ ] demonstrate knowledge"            
        ]
    }
}